{
  "type": "minecraft:crafting_shaped",
  "pattern": [
    "---",
    "-.-",
    "---"
  ],
  "key": {
    "-": {
      "item": "quaedam:projection_metal"
    },
    ".": {
      "item": "minecraft:glowstone"
    }
  },
  "result": {
    "item": "quaedam:skylight_projection"
  }
}
