{
  "display": {
    "icon": {
      "item": "quaedam:swarm_projection"
    },
    "title": {
      "translate": "advancements.quaedam.kill_projected_person.title"
    },
    "description": {
      "translate": "advancements.quaedam.kill_projected_person.description"
    },
    "hidden": true
  },
  "parent": "quaedam:swarm_projection",
  "criteria": {
    "kill_projected_person": {
      "trigger": "minecraft:player_killed_entity",
      "conditions": {
        "entity": [
          {
            "condition": "minecraft:entity_properties",
            "entity": "this",
            "predicate": {
              "type": "quaedam:projected_person"
            }
          }
        ]
      }
    }
  },
  "requirements": [
    [
      "kill_projected_person"
    ]
  ],
  "rewards": {}
}
